﻿Behaviors,Ramnit,Vundo,Gatak,Lollipop,Kelihos,Tracur,Simda
.bash_profile and .bashrc ,,,,,,,
Access Call Log,,,,,,,
Access Sensitive Data or Credentials in Files,x,x,x,,x,,x
Access Token Manipulations,,,,,,,
Account Discovery,,,,,,,
Account Manipulation,,,,,,,
Alternative Installation Location,,,x,,,,
Analysis Tool Discovery,x,,x,,,,
AppInit DLLs ,,,,,,,
AppleScript ,,,,,,,
Application Discovery,,,,,,,
Application Shimming ,,,,,,,
Application Window Discovery,,,,,,,
Audio Capture,,,,,,,
Automated Collection,x,,x,,,,
Automated Exfiltration ,x,,x,x,,,
Backdoor ,,,x,,x,,x
Binary Padding,,,,,,,
BITS Jobs ,x,,,,,,
Boot Sector Modification ,,,,,,,
Browser Extensions ,,x,,x,,x,x
Bypass User Account Control ,,,,,,,
Call Graph Generation Evasion,,,x,,,,
Capture Evasion,x,,x,,,,x
Capture SMS Messages,,,,,,,
Change Default File Association ,,,,,,,
Clipboard Data,,,,,,,
Code Signing,,,,,,,
Command and Control Communication,x,x,x,,x,x,x
Command-Line Interface,,,x,,,,
Commonly Used Port,x,x,x,x,x,,x
Component Firmware ,,,,,,,
Component Object Model Hikacking,,,,,,,
Compromise Data Integrity ,,,,,,,
Conditional Execution ,x,,x,,,,
Configuration Modificiation,x,,,,,,x
Connection Proxy,,,,,,,
Create Account ,,,,,,,
Credential Dumping,,,,,x,,
Credentials in Files,x,x,,,x,,
Credentials in Registry,,,,,,,
Credentials in Web Browsers,,,,,,,
Custom Command and Control Protocol,x,,,,,,
Custom Cryptographic Protocol,,,,,,,
Data Compressed ,x,,,,,,
Data Destruction ,,,,,,,
Data Encoding,,,x,,x,,
Data Encrypted for Impact ,,,,,,,
Data Encrypted ,,,x,,,,
Data from Local System,x,x,x,x,x,,x
Data from Removable Media,,,,,,,
Data Obfuscation,,,x,,,,
Data Staged,x,,x,,,,
DCShadow,,,,,,,
Debugger Detection,x,,,,,x,x
Debugger Evasion,,,,,,,
Denial of Service ,,,,,,,
Deobfuscate/Decode Files or Information,x,,x,,,,
Destroy Hardware ,,,,,,,
Device Type Discovery,,,,,,,
Disabling Security Tools,x,x,,,,x,x
Disassembler Evasion,,,x,,,,
Disk Content Wipe ,,,,,,,
Disk Structure Wipe ,,,,,,,
Distributed Component Object Model ,,,,,,,
DLL Search Order Hijacking ,,,,,,,
Domain Name Generation,x,,,,,,
Domain Trust Discovery,,,,,,,
Dynamic Analysis Evasion,x,,x,,,,
Dynamic Data Exchange ,,,,,,,
Email Collection,,,,,,,
Emulator Detection,,,x,,,,x
Emulator Evasion,,,,,,,
Endpoint Denial of Service ,,,,,,,
Executable Code Obfuscation,x,,x,,,,
Executable Code Optimization,,,,,,,
Executable Code Virtualization,,,,,,,
Execution Guardrails,,,,,,,
Execution through API ,x,,x,,,,
Execution through Module Load ,x,,x,,,,
Exfiltration Over Alternative Protocol ,,,x,,,,
Exfiltration Over Command and Control Channel ,x,,x,x,x,x,x
Exfiltration Over Other Network Medium ,,,,,,,
Exfiltration Over Physical Medium ,,,,,,,
Exploit Kit Behavior ,,,,,,,
Exploit Software ,x,x,,,,,x
Exploitation for Defence Evasion,x,,,,,,
Exploitation for Privilege Escalation ,x,,,,,,x
Exploitation of Remote Services ,,,,,,,
Fallback Channels,,,,,,,
File and Directory Discovery,,,x,,,,
File Deletion,x,,x,x,,,x
File Permissions Modification,,,,,,,
File System Logical Offsets,,,,,,,
File System Permissions Weakness ,,,,,,,
Firmware Corruption ,,,,,,,
Generate Fraudulent Advertising Revenue ,,x,,x,,,
Hidden Files and Directories ,,,,,,,
Hidden Window,x,,,,,,
HISTCONTROL,,,,,,,
Hooking ,x,,,,,x,x
Image File Execution Options Injection ,,,,,,,
Indicator Blocking,,,,,,,
Indicator Removal on Host,x,,x,,,,
Indirect Command Execution,,,,,,,
Inhibit System Recovery ,,,,,,,
Input Capture,x,,,,,,x
Install Additional Program ,x,x,x,,x,x,
Install Root Certificate,,,,,,,
Kernel Modules and Extensions ,,,,,,,
Launch Daemon ,,,,,,,
LLMNR/NBT-NS Poisoning,,,,,,,
Local Job Scheduling ,x,,,,,x,
Local Network Configuration Discovery,,x,,,,,
Location Tracking,,,x,,,,
Malicious Network Driver ,,x,,,,,
Man in the Browser,,,,,,,x
Manipulate Network Traffic ,,,,,,,
Masquerading,x,x,x,,,,
Memory Dump Evasion,,,,,,,
Microphone or Camera Capture,,,,,,,
Modify Existing Service ,,,x,,,,
Modify Registry ,x,x,x,x,x,x,x
Modify Trusted Execution Environment ,,,,,,,
Multi-hop Proxy,,,,,,,
Multi-Stage Channels,,,,,,,
Network Service Scanning,,,,,,,
Network Share Discovery,x,x,,,,,
Network Sniffing,,,,,x,,
New Service ,,,,,,,
NTFS File Attributes,,,,,,,
Obfuscated Files or Information,x,,x,,,,
Office Application Startup ,,,,,,,
Parent PID Spoofing ,,,,,,,
Pass the Hash ,,,,,,,
Peripheral Device Discovery,,,,,,,x
Polymorphic Code,,,,,,,
Port Knocking ,,,,,,,
PowerShell ,x,,,,,,
Prevent Concurrent Execution ,,x,x,,,x,
Private Keys,,,,,,,
Process Discovery,x,x,x,,,,x
Process Hollowing,x,,,,,,
Process Injection ,x,x,x,,,,x
Query Registry,x,,x,,,,
Redundant Access ,,,,,,,
Registry Run Keys / Startup Folder ,x,x,x,x,x,x,
Regsvr32 ,,,,,,,
Remote Access Tools,x,x,x,,,,
Remote Access ,x,x,x,,,x,x
Remote Commands ,x,,x,,x,x,
Remote Desktop Protocol ,,,,,,,
Remote File Copy ,,x,x,x,,x,x
Remote System Discovery,x,,,,,,
Replication Through Removable Media ,x,x,,,x,,
Resource Hijacking ,,,,,,,
Rootkit Behavior,,,,,,,
Rundll32 ,,,x,,,,
Sandbox Detection,x,,x,,,x,x
Scheduled Task ,x,,,,,,
Screen Capture,x,,,,,,
Scripting ,x,,x,,,,
Security Software Discovery,,x,,x,,,x
Self Discovery,,,,,,,
Send Email ,,,,,x,,
Send Poison Text Message ,,,,,,,
Send Poisoned Text Message ,,,,,,,
Service Execution ,,,x,,,,
Service Stop ,,x,,,,,
Setuid and Setgid ,,,,,,,
Shortcut Modification ,x,,,,,,
Shutdown Event ,,,,,,,
SMTP Connection Discovery,,,,,,,
Software Discovery,,,x,,,,x
Software Packing,x,,x,,,,
Spamming ,,,,,x,,
Standard Application Layer Protocol,,,x,,,,
Standard Cryptographic Protocol,x,,x,,,,
Standard Non-Application Layer Protocol,,,,,,,
Startup Items ,x,,,,,,
Sudo ,,,,,,,
Supply Chain Compromise ,,,,,,,
System Firmware ,,,,,,,
System Information Discovery,x,x,x,,,,
System Network Configuration Discovery,,x,,,,,
System Network Connections Discovery,,x,,,,,
System Owner/User Discovery,x,x,x,,,,
System Service Discovery,,,,,,,
System Time Discovery,,,x,,,,
Timestamp,,,,,,,
Uncommonly Used Port,x,,,,,,
User Interaction ,,,,,,,
Video Capture,,,,,,,
Virtual Machine Detection,,,x,,,,x
Virtualization/Sandbox Evasion,x,,x,,,,
Web Service,,,x,,,,
Windows Management ,x,,,,,,
